﻿# Anbennar: commented vanilla stuff

#Select appropriate main event or default
hold_court_event_selection = {
	random_events = {
		100 = hold_court.1001
		100 = hold_court.1011
		100 = hold_court.1021

		100 = hold_court.3000
		100 = hold_court.3010
		100 = hold_court.3020
		100 = hold_court.3030
		100 = hold_court.3040
		100 = hold_court.3060
		100 = hold_court.3080
		100 = hold_court.3090
		100 = hold_court.3091

		25 = hold_court.4001
		50 = hold_court.4500
		50 = hold_court.4600
		100 = hold_court.4900

		100 = hold_court.5010
		100 = hold_court.5030

		100 = hold_court.6000
		100 = hold_court.6030
		100 = hold_court.6040
		# 100 = hold_court.6051 # Anbennar
		# 100 = hold_court.6060 # Anbennar
		100 = hold_court.6070
		100 = hold_court.6080
		100 = hold_court.6090
		100 = hold_court.6100
		100 = hold_court.6110
		100 = hold_court.6120
		100 = hold_court.6130
		100 = hold_court.6140
		100 = hold_court.6160
		100 = hold_court.6170
		5 = hold_court.6190
		100 = hold_court.6210
		100 = hold_court.6230

		100 = hold_court.8001
		100 = hold_court.8010
		100 = hold_court.8020
		100 = hold_court.8040
		100 = hold_court.8050
		100 = hold_court.8060
		100 = hold_court.8070
		100 = hold_court.8080
		100 = hold_court.8090
		100 = hold_court.8100
		100 = hold_court.8110
		100 = hold_court.8120
		100 = hold_court.8130
		100 = hold_court.8140
		100 = hold_court.8150
		100 = hold_court.8160
		100 = hold_court.8161
		100 = hold_court.8180
		100 = hold_court.8190
		100 = hold_court.8200
		100 = hold_court.8210
		100 = hold_court.8260
		100 = hold_court.8270
		100 = hold_court.8280

		300 = legend_events.0020

		# EP3 administrative events
		# 300 = ep3_emperor_yearly.2060 # Anbennar
		# 300 = ep3_emperor_yearly.2070 # Anbennar
		300 = ep3_emperor_yearly.2080
		# 300 = ep3_emperor_yearly.2090 # Anbennar
		300 = ep3_emperor_yearly.2100
		300 = ep3_emperor_yearly.2110
		# 300 = ep3_emperor_yearly.2120 # Anbennar
		300 = ep3_emperor_yearly.2130

		# EP3 general events
		100 = hold_court.8290
		100 = hold_court.8300
		100 = hold_court.8310
		100 = hold_court.8320
		100 = hold_court.8330
		100 = hold_court.8340
		100 = hold_court.7000
		100 = hold_court.7010
		9999 = hold_court.7020
	}
}
