﻿colors = {
	# used by cultures and languages
	english = { 0.8 0.2 0.2 }
	bedouin = { 0.1 0.75 0.1 }
	swabian = { 0.7 0.7 0.7 }
	polish = { 0.3 0.6 0.6 }
	assyrian = { 0.4 0.3 0.6 }
	lithuanian = { 0.56 0.55 0.2 }
	basque = { 0.55 0.42 0.04 }
	baranis = { 161 67 0 }
	welsh = hsv{ 0.68 0.6 0.72 }
	burmese = { 0.35 0.6 0.45 }
	langobard = { 0.85 0.85 0.55 }
	hausa = hsv{ 0.97 1 0.7 }
	han = { 211 44 44 }
	somali = hsv{ 0.6 0.8 0.3 }
	dutch = { 0.8 0.59 0.4 }
	russian = { 0.2 0.4 0.1 }
	ethiopian = hsv{ 0.15 0.9 0.7 }
	finnish = { 0.1 0.6 0.6 }
	frankish = { 0.3 0.3 0.5 }
	french = { 0.1 0.1 0.6 }
	gaelic = hsv{ 0.50 0.90 0.57 }
	gur = hsv{ 0.62 0.9 0.7 }
	castilian = { 0.95 0.82 0.09 }
	hindustani = { 1.0 0.0 0.0 }
	marathi = { 0.8 0.2 0.0 }
	bengali = { 0.45 0.0 0.0 }
	nepali = { 0.65 0.25 0.1  }
	rajput = { 0.6 0.0 0.0 }
	punjabi = { 0.8 0.3 0.2 }
	sinhala = { 1.0 0.3 0.3 }
	kashmiri = { 0.6 0.4 0.3 }
	tamil = { 1.0 0.7 0.2 }
	telugu = { 0.8 0.8 0.0 }
	kannada = { 0.8 0.6 0.0 }
	persian = { 0.8 0.8 0.4 }
	ashkenazi = { 0.6 0.3 0.6 }
	italian = { 0.95 0.95 0.75 }
	kru = hsv{ 0.015 0.95 0.7 }
	akan = hsv{ 0.02 0.8 0.88 }
	hungarian = { 0.5 0.6 0.3 }
	malinke = hsv{ 0.66 0.69 0.58 }
	mongol = { 0.4 0.4 1.0 }
	norse = { 0.3 0.55 0.8 }
	khazar = { 0.7 0.45 0.1 }
	welayta = hsv{ 0.17 0.65 0.44 }
	qiang = { 0.8 0.2 0.2 }
	sami = { 0.4 0.75 0.85 }
	saxon = { 50 50 50 }
	wolof = { 0.42 0.43 0.25 }
	soninke = hsv{ 0.15 1.0 0.7 }
	bosnian = { 0.3 0.1 0.1 }
	nubian = hsv{ 0.12 0.9 0.7 }
	bodpa = { 1.0 0.2 0.0 }
	zaghawa = { 161 64 16 }
	turkish = { 255 155 25 }
	komi = { 0.5 0.75 0.25 }
	mordvin = { 0.45 0.35 0.8 }
	yoruba = hsv{ 0.45 0.7 0.7 }
	armenian = { 0.5 0.2 0.5 }
	greek = { 0.8 0.3 0.8 }
	afghan = { 0.6 0.6 0.1 }
	georgian = { 0.6 0.3 0.8 }
	occitan = { 0.1 0.7 0.8 }
	czech = { 0.2 0.8 0.5 }
	tocharian = { 73 122 70 }
	jurchen = { 122 114 92 }
	bulgarian = { 0.7 0.5 0.5 }
	sardinian = { 0.9 0.9 0.3  }
	vlach = { 0.3 0.2 0.2 }
	songhai = { 0.7 0.2 0.4 }
	brahui = { 1.0 0.4 0.4 }
	gothic = { 0.1 0.2 0.1 }
	ancient_egyptian = { 0.9 0.85 0.17 }
	hebrew = { 0.17 0.75 0.9 }
	hunnic = { 0.3 0.21 0.13 }
	trojan = { 0.83 0.55 0.95 }
	
	
	# Anbennar: vanilla overhauled their own, keeping these to not having to redo everything
	# if you add a color here, remember to add it in "gfx/coat_of_arms/color_paletts/50_coa_designer_palettes.txt" too
	# used by coat of arms
	red 		= hsv {		0.02 	0.8 	0.45 	}
	blue 		= hsv {		0.58 	0.8 	0.4 	}
	yellow		= hsv {		0.1 	0.75 	0.75 	}
	green		= hsv {		0.35 	0.6 	0.30 	}
	black		= hsv {		0.1 	0.25 	0.10 	}
	white		= hsv {		0.08 	0.02 	0.8 	}
	purple 		= hsv {		0.9 	0.7 	0.35 	}
	orange 		= hsv {		0.064 	1 	0.6 	}
	
	grey 		= hsv {		0.0 	0.0 	0.50 	}
	brown 		= hsv360 {	021 	074 	045		}
	
	blue_light	= hsv {		0.58 	0.70 	0.55 	}
	green_light	= hsv {		0.35 	0.50 	0.40 	}
	yellow_light= hsv {		0.1 	0.80 	1.0 	}

	#Anbennar Colours
	# rgb {	28 124 140 }
	damerian_blue	= rgb {	28 124 140 }
	damerian_blue_light	= rgb {	39 160 163 }
	damerian_black	= rgb {	33 33 33 }
	damerian_white	= rgb {	209 211 212 }
	pearlsedge_blue	= rgb { 46 49 146 }
	pearlsedge_pearl = rgb { 254 248 223 }

	arannese_blue = rgb { 63 204 128 }

	# moon_blue		= hsv360 {	021 	074 	045		}
	# silver			= hsv360 {	021 	074 	045		}

	# gawedi_blue		= hsv360 {	021 	074 	045		}
	gawedi_blue	=	rgb { 48  51  108 }
	gawedi_gold = rgb { 209 173 103 }

	busilari_orange = rgb { 211  85  4 } #Busilar's color in EU4
	eborthili_gold = rgb { 207  182  100 } #Eborthil's color in EU4
	verne_red = rgb { 150 0 0 } #Verne's color in EU4
	verne_wyvern_red = rgb { 125 49 40 }
	verne_beige = rgb { 194 181 155 }

	blademarch_yellow = rgb { 219 208 140 }
	blademarch_gray = rgb { 185 185 185 }	#light grey

	lorentish_red	= rgb {	237 28 36 }
	lorentish_red_dark	= rgb {	164 29 33 }
	lorentish_green	= rgb {	75 131 61 }
	lorentish_green_dark = rgb { 55 111 41 }
	lorentish_lilac	= rgb {	168 128 186 }
	lorentish_gold	= rgb { 255 239 159 }
	enteben_red = rgb { 120 40 40 }
	derannic_purple	= rgb { 102 45 145 }
	derannic_pink	= rgb { 218 28 92 }
	roilsardi_red	= rgb { 185 30 68 }
	roilsardi_green	= rgb { 176 229 104 }
	corvurian_red_dark	= rgb { 118 17 19 }
	corvurian_red_light	= rgb { 161 28 47 }
	iochand_yellow	= rgb { 255 203 32 }
	iochand_blue	= rgb { 58 50 153 }
	iochand_green	= rgb { 176 255 153 }
	wexonard_purple = rgb { 97  0  137 }
	ibevar_blue = rgb { 210 237 246 }
	dark_hunter_green = rgb { 39 74 39 }

	castanorian_dragon_silver = rgb { 162 170 200 }	#used for the dragon

	beige = rgb { 155 129 108 }
	purpure = rgb { 133 23 69 }
	pink = rgb { 220 120 140 }
	brown_dark = rgb { 90 54 45}
}
