k_nimscodd = {
	1000.1.1 = { change_development_level = 8 }
	1020.3.4 = {
		government = republic_government
		holder = 50 #Oddo Coddorran
	}
}

c_nimscodd = {
	1000.1.1 = { change_development_level = 18 }
	1020.3.4 = {
		government = republic_government
		holder = 50 #Oddo Coddorran
	}
}

c_baycodds = {
	1000.1.1 = { change_development_level = 12 }
	1020.3.4 = {
		government = republic_government
		holder = 50 #Oddo Coddorran
	}
}