 170 = {

    # Misc
    culture = redscale
    religion = kobold_dragon_cult
	holding = tribal_holding

    # History
 }

 171 = {

    # Misc
    culture = redscale
    religion = kobold_dragon_cult
	holding = tribal_holding

    # History
 }

 172 = {

    # Misc
    culture = bluescale
    religion = kobold_dragon_cult
	holding = tribal_holding

     # History
 }

 173 = {

    # Misc
    culture = redscale
    religion = kobold_dragon_cult
	holding = tribal_holding

    # History
 }

 174 = {

    # Misc
    culture = bluescale
    religion = kobold_dragon_cult
	holding = tribal_holding

    # History
 }

 181 = {

    # Misc
    culture = redscale
    religion = kobold_dragon_cult
	holding = tribal_holding

    # History
 }
6407={
    # Misc
    holding = none

    # History
}
6408={
    # Misc
    holding = none

    # History
}
6409={
    # Misc
    holding = none

    # History
}
6410={
    # Misc
    holding = none

    # History
}
6411={
    # Misc
    holding = none

    # History
}
6412={
    # Misc
    holding = none

    # History
}
6413={
    # Misc
    holding = none

    # History
}
6414={
    # Misc
    holding = none

    # History
}
6415={
    # Misc
    holding = none

    # History
}
6416={
    # Misc
    holding = none

    # History
}
6428={
    # Misc
    holding = none

    # History
}
6429={
    # Misc
    holding = none

    # History
}
6430={
    # Misc
    holding = none

    # History
}
6431={
    # Misc
    holding = none

    # History
}