﻿#k_gor_ozumbrog
##d_gor_ozumbrog
###c_gor_ozumbrog
4218 = {

    # Misc
    culture = topaz_dwarvish
    religion = ancestor_worship
	holding = castle_holding

    # History
}
##d_xazorod
###c_dwarovrod40
4111 = {

    # Misc
    culture = topaz_dwarvish
    religion = ancestor_worship
	holding = castle_holding

    # History
}
###c_dwarovrod39
4091 = {

    # Misc
    culture = topaz_dwarvish
    religion = ancestor_worship
	holding = castle_holding

    # History
}
###c_dwarovrod41
4112 = {

    # Misc
    culture = topaz_dwarvish
    religion = ancestor_worship
	holding = castle_holding

    # History
}
###c_dwarovrod42
4113 = {

    # Misc
    culture = topaz_dwarvish
    religion = ancestor_worship
	holding = castle_holding

    # History
}
##d_ozumrod
###c_dwarovrod44
4090 = {

    # Misc
    culture = topaz_dwarvish
    religion = ancestor_worship
	holding = castle_holding

    # History
}
###c_dwarovrod43
4114 = {

    # Misc
    culture = topaz_dwarvish
    religion = ancestor_worship
	holding = castle_holding

    # History
}